[
  {
    "id": 9999,
    "army": "Mercenary",
    "name": "Mercenary",
    "units": [
      {
        "comment": "Yuan Yuan",
        "id": 9001
      },
      {
        "comment": "Bashi Bazouk",
        "id": 9002
      },
      {
        "comment": "Druze Shock Teams",
        "id": 9003
      },
      {
        "comment": "Highlander Caterans",
        "id": 9004
      },
      {
        "comment": "McMurrough",
        "id": 9005
      },
      {
        "comment": "Kempeitai",
        "id": 9006
      },
      {
        "comment": "Saito Tōgan",
        "id": 9007
      },
      {
        "comment": "Miyamoto Mushashi",
        "id": 9008
      },
      {
        "comment": "Avicenna",
        "id": 9009
      },
      {
        "comment": "Father Lucien Sforza",
        "id": 9010
      },
      {
        "comment": "Señor Massacre",
        "id": 9011
      },
      {
        "comment": "Valerya Gromoz, Mercenary Hacker",
        "id": 9012
      },
      {
        "comment": "KTS, Kaplan Tactical Services",
        "id": 9013
      },
      {
        "comment": "Yojimbo",
        "id": 9014
      },
      {
        "comment": "Scarface",
        "id": 9015
      },
      {
        "comment": "Anaconda",
        "id": 9016
      },
      {
        "comment": "Warcor",
        "id": 9017
      },
      {
        "comment": "Authorized Bounty Hunters",
        "id": 9018
      },
      {
        "comment": "Miranda Ashcroft",
        "id": 9019
      },
      {
        "comment": "CSU, Corporate Security Unit",
        "id": 9020
      },
      {
        "comment": "Wardrivers",
        "id": 9021
      },
      {
        "comment": "Armand 'Le Muet'",
        "id": 9022
      },
      {
        "comment": "Krakot Renegades, Morat Fugitives",
        "id": 9023
      }
    ]
  }
]