[
  {
    "id": 2001,
    "army": "Yu Jing",
    "isc": "Keisotsu",
    "name": "Keisotsu",
    "type": "LI",
    "imp": "",
    "irr": "",
    "cube": "",
    "mov": "4-4",
    "cc": "14",
    "bs": "10",
    "ph": "10",
    "wip": "12",
    "arm": "1",
    "bts": "0",
    "w": "1",
    "s": "2",
    "ava": "T",
    "spec": [
      "V: Courage"
    ],
    "childs": [
      {
        "id": 1,
        "code": "Default",
        "codename": "Combi",
        "cost": "9",
        "swc": "0",
        "spec": [],
        "bsw": [
          "Combi Rifle"
        ],
        "ccw": [
          "Knife",
          "Pistol"
        ]
      },
      {
        "id": 2,
        "code": "HMG",
        "codename": "",
        "cost": "17",
        "swc": "1",
        "spec": [],
        "bsw": [
          "HMG"
        ],
        "ccw": [
          "Knife",
          "Pistol"
        ]
      },
      {
        "id": 3,
        "code": "Grenadier",
        "codename": "",
        "cost": "13",
        "swc": "0.5",
        "spec": [],
        "bsw": [
          "Light Grenade Launcher",
          "Combi Rifle"
        ],
        "ccw": [
          "Knife",
          "Pistol"
        ]
      },
      {
        "id": 4,
        "code": "MULTI Sniper Rifle",
        "codename": "",
        "cost": "17",
        "swc": "1.5",
        "spec": [],
        "bsw": [
          "MULTI Sniper Rifle"
        ],
        "ccw": [
          "Knife",
          "Pistol"
        ]
      },
      {
        "id": 5,
        "code": "Missile Launcher",
        "codename": "",
        "cost": "14",
        "swc": "1.5",
        "spec": [],
        "bsw": [
          "Missile Launcher"
        ],
        "ccw": [
          "Knife",
          "Pistol"
        ]
      },
      {
        "id": 6,
        "code": "Hacker",
        "codename": "",
        "cost": "17",
        "swc": "0.5",
        "spec": [
          "Hacking Device"
        ],
        "bsw": [
          "Combi Rifle"
        ],
        "ccw": [
          "Knife",
          "Pistol"
        ]
      },
      {
        "id": 7,
        "code": "Observer",
        "codename": "",
        "cost": "10",
        "swc": "0",
        "spec": [
          "Forward Observer"
        ],
        "bsw": [
          "Combi Rifle"
        ],
        "ccw": [
          "Knife",
          "Pistol"
        ]
      },
      {
        "id": 8,
        "code": "Paramedic",
        "codename": "",
        "cost": "11",
        "swc": "0",
        "spec": [
          "MediKit"
        ],
        "bsw": [
          "Combi Rifle"
        ],
        "ccw": [
          "Knife",
          "Pistol"
        ]
      },
      {
        "id": 9,
        "code": "Lieutenant",
        "codename": "",
        "cost": "9",
        "swc": "2",
        "spec": [
          "Lieutenant"
        ],
        "bsw": [
          "Combi Rifle"
        ],
        "ccw": [
          "Knife",
          "Pistol"
        ]
      }
    ]
  },
  {
    "id": 2002,
    "army": "Yu Jing",
    "isc": "Zhanshi",
    "name": "Zhanshi",
    "type": "LI",
    "imp": "",
    "irr": "",
    "cube": "X",
    "mov": "4-4",
    "cc": "14",
    "bs": "11",
    "ph": "10",
    "wip": "13",
    "arm": "1",
    "bts": "0",
    "w": "1",
    "s": "2",
    "ava": "T",
    "spec": [],
    "childs": [
      {
        "id": 1,
        "code": "Default",
        "codename": "Combi",
        "cost": "11",
        "swc": "0",
        "spec": [],
        "bsw": [
          "Combi Rifle"
        ],
        "ccw": [
          "Knife",
          "Pistol"
        ]
      },
      {
        "id": 2,
        "code": "HMG",
        "codename": "",
        "cost": "19",
        "swc": "1",
        "spec": [],
        "bsw": [
          "HMG"
        ],
        "ccw": [
          "Knife",
          "Pistol"
        ]
      },
      {
        "id": 3,
        "code": "Grenadier",
        "codename": "",
        "cost": "15",
        "swc": "1",
        "spec": [],
        "bsw": [
          "Light Grenade Launcher",
          "Combi Rifle"
        ],
        "ccw": [
          "Knife",
          "Pistol"
        ]
      },
      {
        "id": 4,
        "code": "MULTI Sniper Rifle",
        "codename": "",
        "cost": "19",
        "swc": "1.5",
        "spec": [],
        "bsw": [
          "MULTI Sniper Rifle"
        ],
        "ccw": [
          "Knife",
          "Pistol"
        ]
      },
      {
        "id": 5,
        "code": "Missile Launcher",
        "codename": "",
        "cost": "16",
        "swc": "1.5",
        "spec": [],
        "bsw": [
          "Missile Launcher"
        ],
        "ccw": [
          "Knife",
          "Pistol"
        ]
      },
      {
        "id": 6,
        "code": "Hacker",
        "codename": "",
        "cost": "19",
        "swc": "0.5",
        "spec": [
          "Hacking Device"
        ],
        "bsw": [
          "Combi Rifle"
        ],
        "ccw": [
          "Knife",
          "Pistol"
        ]
      },
      {
        "id": 7,
        "code": "Paramedic",
        "codename": "",
        "cost": "13",
        "swc": "0",
        "spec": [
          "MediKit"
        ],
        "bsw": [
          "Combi Rifle"
        ],
        "ccw": [
          "Knife",
          "Pistol"
        ]
      },
      {
        "id": 8,
        "code": "Observer",
        "codename": "",
        "cost": "12",
        "swc": "0",
        "spec": [
          "Forward Observer"
        ],
        "bsw": [
          "Combi Rifle"
        ],
        "ccw": [
          "Knife",
          "Pistol"
        ]
      },
      {
        "id": 9,
        "code": "Lieutenant",
        "codename": "",
        "cost": "11",
        "swc": "0",
        "spec": [
          "Lieutenant"
        ],
        "bsw": [
          "Combi Rifle"
        ],
        "ccw": [
          "Knife",
          "Pistol"
        ]
      }
    ]
  },
  {
    "id": 2003,
    "army": "Yu Jing",
    "isc": "Zhànying Imperial Agents",
    "name": "Zhànying",
    "type": "LI",
    "imp": "",
    "irr": "",
    "cube": "X",
    "mov": "4-4",
    "cc": "16",
    "bs": "12",
    "ph": "10",
    "wip": "13",
    "arm": "2",
    "bts": "3",
    "w": "1",
    "s": "2",
    "ava": "2",
    "spec": [
      "Bioimmunity",
      "Sixth Sense L2"
    ],
    "childs": [
      {
        "id": 1,
        "code": "Combi",
        "codename": "",
        "cost": "26",
        "swc": "0",
        "spec": [
          "Sensor"
        ],
        "bsw": [
          "Breaker Combi Rifle",
          "Nimbus Grenades"
        ],
        "ccw": [
          "Electric Pulse",
          "Pistol"
        ]
      },
      {
        "id": 2,
        "code": "HMG",
        "codename": "",
        "cost": "30",
        "swc": "1",
        "spec": [],
        "bsw": [
          "HMG"
        ],
        "ccw": [
          "Electric Pulse",
          "Pistol"
        ]
      },
      {
        "id": 3,
        "code": "Boarding Shotgun",
        "codename": "",
        "cost": "23",
        "swc": "0",
        "spec": [
          "Sensor"
        ],
        "bsw": [
          "Boarding Shotgun",
          "Nimbus Grenades"
        ],
        "ccw": [
          "Electric Pulse",
          "Pistol"
        ]
      },
      {
        "id": 4,
        "code": "Missile Launcher",
        "codename": "",
        "cost": "28",
        "swc": "1.5",
        "spec": [],
        "bsw": [
          "Missile Launcher",
          "Nanopulser",
          "Nimbus Grenades"
        ],
        "ccw": [
          "Electric Pulse",
          "Pistol"
        ]
      },
      {
        "id": 5,
        "code": "Hacker",
        "codename": "",
        "cost": "32",
        "swc": "0.5",
        "spec": [
          "Hacking Device"
        ],
        "bsw": [
          "Breaker Combi Rifle"
        ],
        "ccw": [
          "Electric Pulse",
          "Pistol",
          "D-Charges"
        ]
      },
      {
        "id": 6,
        "code": "Observer",
        "codename": "",
        "cost": "25",
        "swc": "0",
        "spec": [
          "Forward Observer"
        ],
        "bsw": [
          "Breaker Combi Rifle"
        ],
        "ccw": [
          "Electric Pulse",
          "Pistol"
        ]
      },
      {
        "id": 7,
        "code": "Lieutenant",
        "codename": "",
        "cost": "26",
        "swc": "0",
        "spec": [
          "Sensor",
          "Lieutenant"
        ],
        "bsw": [
          "Breaker Combi Rifle",
          "Nimbus Grenades"
        ],
        "ccw": [
          "Electric Pulse",
          "Pistol"
        ]
      },
      {
        "id": 8,
        "code": "HMG Lieutenant",
        "codename": "",
        "cost": "30",
        "swc": "1",
        "spec": [
          "Lieutenant"
        ],
        "bsw": [
          "HMG"
        ],
        "ccw": [
          "Electric Pulse",
          "Pistol"
        ]
      }
    ]
  },
  {
    "id": 2004,
    "army": "Yu Jing",
    "isc": "Tiger Soldiers",
    "name": "Tiger",
    "type": "MI",
    "imp": "",
    "irr": "",
    "cube": "X",
    "mov": "4-2",
    "cc": "15",
    "bs": "13",
    "ph": "12",
    "wip": "14",
    "arm": "2",
    "bts": "0",
    "w": "1",
    "s": "2",
    "ava": "3",
    "spec": [
      "AD: Combat Jump / Multiterrain",
      "CH: Mimetism"
    ],
    "childs": [
      {
        "id": 1,
        "code": "Default",
        "codename": "Combi",
        "cost": "27",
        "swc": "0",
        "spec": [],
        "bsw": [
          "Combi Rifle",
          "Light Flamethrower"
        ],
        "ccw": [
          "Knife",
          "Pistol"
        ]
      },
      {
        "id": 2,
        "code": "Spitfire",
        "codename": "",
        "cost": "32",
        "swc": "1.5",
        "spec": [],
        "bsw": [
          "Spitfire"
        ],
        "ccw": [
          "Knife",
          "Pistol"
        ]
      },
      {
        "id": 3,
        "code": "Boarding Shotgun",
        "codename": "",
        "cost": "25",
        "swc": "0",
        "spec": [],
        "bsw": [
          "Boarding Shotgun"
        ],
        "ccw": [
          "Knife",
          "Pistol"
        ]
      },
      {
        "id": 4,
        "code": "MULTI Sniper Rifle",
        "codename": "",
        "cost": "34",
        "swc": "1.5",
        "spec": [],
        "bsw": [
          "MULTI Sniper Rifle"
        ],
        "ccw": [
          "Knife",
          "Pistol"
        ]
      },
      {
        "id": 5,
        "code": "Hacker",
        "codename": "",
        "cost": "33",
        "swc": "0.5",
        "spec": [
          "Assault Hacking Device"
        ],
        "bsw": [
          "Combi Rifle",
          "Light Flamethrower"
        ],
        "ccw": [
          "Knife",
          "Pistol"
        ]
      },
      {
        "id": 6,
        "code": "Paramedic",
        "codename": "",
        "cost": "29",
        "swc": "0",
        "spec": [
          "MediKit"
        ],
        "bsw": [
          "Combi Rifle",
          "Light Flamethrower"
        ],
        "ccw": [
          "Knife",
          "Pistol"
        ]
      },
      {
        "id": 7,
        "code": "Lieutenant",
        "codename": "",
        "cost": "27",
        "swc": "1",
        "spec": [
          "Lieutenant"
        ],
        "bsw": [
          "Combi Rifle",
          "Light Flamethrower"
        ],
        "ccw": [
          "Knife",
          "Pistol"
        ]
      }
    ]
  },
  {
    "id": 2005,
    "army": "Yu Jing",
    "isc": "Zúyong Invincibles",
    "name": "Zúyong",
    "type": "HI",
    "imp": "",
    "irr": "",
    "cube": "X",
    "hackable": "X",
    "mov": "4-4",
    "cc": "15",
    "bs": "13",
    "ph": "12",
    "wip": "13",
    "arm": "3",
    "bts": "3",
    "w": "2",
    "s": "2",
    "ava": "5",
    "spec": [
      "Kinematika L1"
    ],
    "childs": [
      {
        "id": 1,
        "code": "Default",
        "codename": "Combi",
        "cost": "27",
        "swc": "0",
        "spec": [],
        "bsw": [
          "Combi Rifle"
        ],
        "ccw": [
          "Knife",
          "Breaker Pistol (2)"
        ]
      },
      {
        "id": 2,
        "code": "Tinbot",
        "codename": "",
        "cost": "30",
        "swc": "0.5",
        "spec": [
          "Tinbot B (Deflector L2)"
        ],
        "bsw": [
          "Combi Rifle"
        ],
        "ccw": [
          "Knife",
          "Breaker Pistol (2)"
        ]
      },
      {
        "id": 3,
        "code": "HMG",
        "codename": "",
        "cost": "35",
        "swc": "1.5",
        "spec": [],
        "bsw": [
          "HMG"
        ],
        "ccw": [
          "Knife",
          "Breaker Pistol (2)"
        ]
      },
      {
        "id": 4,
        "code": "Boarding Shotgun",
        "codename": "",
        "cost": "26",
        "swc": "0",
        "spec": [],
        "bsw": [
          "Boarding Shotgun"
        ],
        "ccw": [
          "Knife",
          "Breaker Pistol (2)"
        ]
      },
      {
        "id": 5,
        "code": "MULTI",
        "codename": "",
        "cost": "31",
        "swc": "0",
        "spec": [],
        "bsw": [
          "MULTI Rifle"
        ],
        "ccw": [
          "Knife",
          "Breaker Pistol (2)"
        ]
      },
      {
        "id": 6,
        "code": "Missile Launcher",
        "codename": "",
        "cost": "36",
        "swc": "2",
        "spec": [],
        "bsw": [
          "Missile Launcher",
          "Light Shotgun"
        ],
        "ccw": [
          "Knife",
          "Breaker Pistol (2)"
        ]
      },
      {
        "id": 7,
        "code": "AutoMediKit HMG",
        "codename": "",
        "cost": "39",
        "swc": "2",
        "spec": [
          "AutoMediKit"
        ],
        "bsw": [
          "HMG"
        ],
        "ccw": [
          "Knife",
          "Breaker Pistol (2)"
        ]
      },
      {
        "id": 8,
        "code": "Observer",
        "codename": "",
        "cost": "28",
        "swc": "0",
        "spec": [
          "Forward Observer"
        ],
        "bsw": [
          "Combi Rifle"
        ],
        "ccw": [
          "Knife",
          "Breaker Pistol (2)"
        ]
      },
      {
        "id": 9,
        "code": "Paramedic",
        "codename": "",
        "cost": "29",
        "swc": "0",
        "spec": [
          "MediKit"
        ],
        "bsw": [
          "Combi Rifle"
        ],
        "ccw": [
          "Knife",
          "Breaker Pistol (2)"
        ]
      },
      {
        "id": 10,
        "code": "Lieutenant",
        "codename": "",
        "cost": "27",
        "swc": "0",
        "spec": [
          "Lieutenant"
        ],
        "bsw": [
          "Combi Rifle"
        ],
        "ccw": [
          "Knife",
          "Breaker Pistol (2)"
        ]
      },
      {
        "id": 11,
        "code": "HMG Lieutenant",
        "codename": "",
        "cost": "39",
        "swc": "1",
        "spec": [
          "AutoMediKit",
          "Lieutenant"
        ],
        "bsw": [
          "HMG"
        ],
        "ccw": [
          "Knife",
          "Breaker Pistol (2)"
        ]
      }
    ]
  },
  {
    "id": 2006,
    "army": "Yu Jing",
    "isc": "Yan Huo Invincibles",
    "name": "Yan Huo",
    "type": "HI",
    "imp": "",
    "irr": "",
    "cube": "X",
    "hackable": "X",
    "mov": "4-2",
    "cc": "15",
    "bs": "14",
    "ph": "13",
    "wip": "13",
    "arm": "5",
    "bts": "3",
    "w": "2",
    "s": "5",
    "ava": "2",
    "spec": [],
    "childs": [
      {
        "id": 1,
        "code": "MULTI HMG",
        "codename": "",
        "cost": "53",
        "swc": "2",
        "spec": [],
        "bsw": [
          "MULTI HMG"
        ],
        "ccw": [
          "Knife",
          "Pistol"
        ]
      },
      {
        "id": 2,
        "code": "HMC",
        "codename": "",
        "cost": "54",
        "swc": "2",
        "spec": [],
        "bsw": [
          "HMC"
        ],
        "ccw": [
          "Knife",
          "Pistol"
        ]
      },
      {
        "id": 3,
        "code": "Missile Launcher",
        "codename": "",
        "cost": "52",
        "swc": "2",
        "spec": [],
        "bsw": [
          "Missile Launcher (2)"
        ],
        "ccw": [
          "Knife",
          "Pistol"
        ]
      },
      {
        "id": 4,
        "code": "MULTI HMG Lieutenant",
        "codename": "",
        "cost": "53",
        "swc": "2",
        "spec": [
          "Lieutenant"
        ],
        "bsw": [
          "MULTI HMG"
        ],
        "ccw": [
          "Knife",
          "Pistol"
        ]
      },
      {
        "id": 5,
        "code": "HMC Lieutenant",
        "codename": "",
        "cost": "54",
        "swc": "2",
        "spec": [
          "Lieutenant"
        ],
        "bsw": [
          "HMC"
        ],
        "ccw": [
          "Knife",
          "Pistol"
        ]
      }
    ]
  },
  {
    "id": 2007,
    "army": "Yu Jing",
    "isc": "Wu Ming",
    "name": "Wu Ming",
    "type": "HI",
    "imp": "",
    "irr": "",
    "cube": "",
    "hackable": "X",
    "mov": "4-4",
    "cc": "16",
    "bs": "13",
    "ph": "13",
    "wip": "13",
    "arm": "4",
    "bts": "3",
    "w": "2",
    "s": "2",
    "ava": "3",
    "spec": [
      "Kinematika L1"
    ],
    "childs": [
      {
        "id": 1,
        "code": "Default",
        "codename": "MULTI",
        "cost": "39",
        "swc": "0",
        "spec": [],
        "bsw": [
          "MULTI Rifle",
          "Light Grenade Launcher"
        ],
        "ccw": [
          "Pistol",
          "Knife"
        ]
      },
      {
        "id": 2,
        "code": "HMG",
        "codename": "",
        "cost": "39",
        "swc": "2",
        "spec": [],
        "bsw": [
          "HMG"
        ],
        "ccw": [
          "Pistol",
          "Knife"
        ]
      },
      {
        "id": 3,
        "code": "Nimbus",
        "codename": "",
        "cost": "35",
        "swc": "0",
        "spec": [],
        "bsw": [
          "MULTI Rifle",
          "Light Nimbus Grenade Launcher"
        ],
        "ccw": [
          "Pistol",
          "Knife"
        ]
      },
      {
        "id": 4,
        "code": "Boarding Shotgun",
        "codename": "",
        "cost": "33",
        "swc": "0.5",
        "spec": [
          "Tinbot B (Deflector L2)"
        ],
        "bsw": [
          "Boarding Shotgun"
        ],
        "ccw": [
          "Pistol",
          "Knife"
        ]
      },
      {
        "id": 5,
        "code": "Panzerfaust",
        "codename": "",
        "cost": "29",
        "swc": "0.5",
        "spec": [],
        "bsw": [
          "Panzerfaust",
          "Light Shotgun"
        ],
        "ccw": [
          "Pistol",
          "Knife"
        ]
      },
      {
        "id": 6,
        "code": "Observer",
        "codename": "",
        "cost": "31",
        "swc": "0",
        "spec": [
          "Forward Observer"
        ],
        "bsw": [
          "Boarding Shotgun"
        ],
        "ccw": [
          "Pistol",
          "Knife"
        ]
      },
      {
        "id": 7,
        "code": "Combi",
        "codename": "",
        "cost": "33",
        "swc": "0",
        "spec": [],
        "bsw": [
          "Combi Rifle",
          "E/Mitter"
        ],
        "ccw": [
          "Pistol",
          "Knife"
        ]
      },
      {
        "id": 8,
        "code": "Light Rocket Launcher",
        "codename": "",
        "cost": "37",
        "swc": "1",
        "spec": [],
        "bsw": [
          "Combi Rifle",
          "Light Rocket Launcher"
        ],
        "ccw": [
          "Pistol",
          "Knife"
        ]
      }
    ]
  },
  {
    "id": 2008,
    "army": "Yu Jing",
    "isc": "Daofei",
    "name": "Daofei",
    "type": "HI",
    "imp": "",
    "irr": "",
    "cube": "X",
    "hackable": "X",
    "mov": "4-4",
    "cc": "16",
    "bs": "13",
    "ph": "14",
    "wip": "13",
    "arm": "4",
    "bts": "3",
    "w": "2",
    "s": "2",
    "ava": "1",
    "spec": [
      "CH: Camouflage",
      "Infiltration"
    ],
    "childs": [
      {
        "id": 1,
        "code": "Default",
        "codename": "MULTI",
        "cost": "53",
        "swc": "0",
        "spec": [],
        "bsw": [
          "MULTI Rifle"
        ],
        "ccw": [
          "Pistol",
          "Shock CCW"
        ]
      },
      {
        "id": 2,
        "code": "HMG",
        "codename": "",
        "cost": "57",
        "swc": "2",
        "spec": [],
        "bsw": [
          "HMG"
        ],
        "ccw": [
          "Pistol",
          "Shock CCW"
        ]
      },
      {
        "id": 3,
        "code": "Boarding Shotgun",
        "codename": "",
        "cost": "48",
        "swc": "0",
        "spec": [],
        "bsw": [
          "Boarding Shotgun"
        ],
        "ccw": [
          "Pistol",
          "Shock CCW"
        ]
      },
      {
        "id": 4,
        "code": "Spitfire",
        "codename": "",
        "cost": "55",
        "swc": "2",
        "spec": [],
        "bsw": [
          "Spitfire"
        ],
        "ccw": [
          "Pistol",
          "Shock CCW"
        ]
      },
      {
        "id": 5,
        "code": "Hacker",
        "codename": "",
        "cost": "59",
        "swc": "0.5",
        "spec": [
          "Assault Hacking Device"
        ],
        "bsw": [
          "MULTI Rifle"
        ],
        "ccw": [
          "Pistol",
          "Shock CCW"
        ]
      },
      {
        "id": 6,
        "code": "Lieutenant",
        "codename": "",
        "cost": "53",
        "swc": "0",
        "spec": [
          "Lieutenant"
        ],
        "bsw": [
          "MULTI Rifle"
        ],
        "ccw": [
          "Pistol",
          "Shock CCW"
        ]
      },
      {
        "id": 7,
        "code": "Spitfire Lieutenant",
        "codename": "",
        "cost": "55",
        "swc": "1.5",
        "spec": [
          "Lieutenant"
        ],
        "bsw": [
          "Spitfire"
        ],
        "ccw": [
          "Pistol",
          "Shock CCW"
        ]
      }
    ]
  },
  {
    "id": 2009,
    "army": "Yu Jing",
    "isc": "Hac Tao",
    "name": "Hac Tao",
    "type": "HI",
    "imp": "",
    "irr": "",
    "cube": "X",
    "hackable": "X",
    "mov": "4-4",
    "cc": "19",
    "bs": "14",
    "ph": "14",
    "wip": "14",
    "arm": "5",
    "bts": "6",
    "w": "2",
    "s": "2",
    "ava": "1",
    "spec": [
      "CH: TO Camouflage",
      "Kinematika L1"
    ],
    "childs": [
      {
        "id": 1,
        "code": "Default",
        "codename": "MULTI",
        "cost": "64",
        "swc": "0",
        "spec": [],
        "bsw": [
          "Nanopulser",
          "MULTI Rifle"
        ],
        "ccw": [
          "Pistol",
          "DA CCW"
        ]
      },
      {
        "id": 2,
        "code": "HMG",
        "codename": "",
        "cost": "68",
        "swc": "2",
        "spec": [],
        "bsw": [
          "Nanopulser",
          "HMG"
        ],
        "ccw": [
          "Pistol",
          "DA CCW"
        ]
      },
      {
        "id": 3,
        "code": "Boarding Shotgun",
        "codename": "",
        "cost": "59",
        "swc": "0",
        "spec": [],
        "bsw": [
          "Nanopulser",
          "Boarding Shotgun"
        ],
        "ccw": [
          "Pistol",
          "DA CCW"
        ]
      },
      {
        "id": 4,
        "code": "Missile Launcher",
        "codename": "",
        "cost": "65",
        "swc": "2",
        "spec": [],
        "bsw": [
          "Nanopulser",
          "Missile Launcher"
        ],
        "ccw": [
          "Pistol",
          "DA CCW"
        ]
      },
      {
        "id": 5,
        "code": "Hacker",
        "codename": "",
        "cost": "70",
        "swc": "0.5",
        "spec": [
          "Assault Hacking Device"
        ],
        "bsw": [
          "Nanopulser",
          "MULTI Rifle"
        ],
        "ccw": [
          "Pistol",
          "DA CCW"
        ]
      },
      {
        "id": 6,
        "code": "Executive Order",
        "codename": "",
        "cost": "65",
        "swc": "0.5",
        "spec": [
          "Executive Order"
        ],
        "bsw": [
          "Nanopulser",
          "MULTI Rifle"
        ],
        "ccw": [
          "Pistol",
          "DA CCW"
        ]
      },
      {
        "id": 7,
        "code": "HMG Executive Order",
        "codename": "",
        "cost": "69",
        "swc": "2",
        "spec": [
          "Executive Order"
        ],
        "bsw": [
          "Nanopulser",
          "HMG"
        ],
        "ccw": [
          "Pistol",
          "DA CCW"
        ]
      }
    ]
  },
  {
    "id": 2010,
    "army": "Yu Jing",
    "isc": "Hsien",
    "name": "Hsien",
    "type": "HI",
    "imp": "",
    "irr": "",
    "cube": "X",
    "hackable": "X",
    "mov": "4-4",
    "cc": "19",
    "bs": "14",
    "ph": "14",
    "wip": "14",
    "arm": "4",
    "bts": "6",
    "w": "2",
    "s": "2",
    "ava": "2",
    "spec": [
      "Martial Arts L1",
      "Multispectral Visor L2"
    ],
    "childs": [
      {
        "id": 1,
        "code": "Default",
        "codename": "MULTI",
        "cost": "57",
        "swc": "0",
        "spec": [],
        "bsw": [
          "Nanopulser",
          "MULTI Rifle"
        ],
        "ccw": [
          "AP CCW",
          "Pistol"
        ]
      },
      {
        "id": 2,
        "code": "Tinbot",
        "codename": "",
        "cost": "60",
        "swc": "0.5",
        "spec": [
          "Tinbot B (Deflector L2)"
        ],
        "bsw": [
          "Nanopulser",
          "MULTI Rifle"
        ],
        "ccw": [
          "AP CCW",
          "Pistol"
        ]
      },
      {
        "id": 3,
        "code": "HMG",
        "codename": "",
        "cost": "61",
        "swc": "2",
        "spec": [],
        "bsw": [
          "Nanopulser",
          "HMG"
        ],
        "ccw": [
          "AP CCW",
          "Pistol"
        ]
      },
      {
        "id": 4,
        "code": "Boarding Shotgun",
        "codename": "",
        "cost": "52",
        "swc": "0",
        "spec": [],
        "bsw": [
          "Nanopulser",
          "Boarding Shotgun"
        ],
        "ccw": [
          "AP CCW",
          "Pistol"
        ]
      },
      {
        "id": 5,
        "code": "Lieutenant",
        "codename": "",
        "cost": "57",
        "swc": "-1",
        "spec": [
          "Lieutenant"
        ],
        "bsw": [
          "Nanopulser",
          "MULTI Rifle"
        ],
        "ccw": [
          "AP CCW",
          "Pistol"
        ]
      },
      {
        "id": 6,
        "code": "Tinbot Lieutenant",
        "codename": "",
        "cost": "60",
        "swc": "0",
        "spec": [
          "Lieutenant",
          "Tinbot B (Deflector L2)"
        ],
        "bsw": [
          "Nanopulser",
          "MULTI Rifle"
        ],
        "ccw": [
          "AP CCW",
          "Pistol"
        ]
      },
      {
        "id": 7,
        "code": "HMG Lieutenant",
        "codename": "",
        "cost": "61",
        "swc": "2",
        "spec": [
          "Lieutenant"
        ],
        "bsw": [
          "Nanopulser",
          "HMG"
        ],
        "ccw": [
          "AP CCW",
          "Pistol"
        ]
      }
    ]
  },
  {
    "id": 2011,
    "army": "Yu Jing",
    "isc": "Guijia",
    "name": "Guijia",
    "ava": "2",
    "spec": [],
    "profiles": [
      {
        "id": 1,
        "name": "Guijia",
        "type": "TAG",
        "imp": "",
        "irr": "",
        "cube": "X",
        "hackable": "X",
        "mov": "6-4",
        "cc": "19",
        "bs": "14",
        "ph": "17",
        "wip": "13",
        "arm": "8",
        "bts": "6",
        "w": "3",
        "s": "7",
        "spec": [
          "ECM",
          "Manned"
        ],
        "bsw": [],
        "ccw": []
      },
      {
        "id": 2,
        "name": "Pilot",
        "type": "LI",
        "cube": "X",
        "hackable": "",
        "mov": "4-4",
        "cc": "14",
        "bs": "11",
        "ph": "10",
        "wip": "13",
        "arm": "0",
        "bts": "0",
        "w": "1",
        "s": "2",
        "ava": " ",
        "spec": [
          "Pilot"
        ],
        "bsw": [],
        "ccw": [
          "Pistol",
          "Knife"
        ]
      }
    ],
    "childs": [
      {
        "id": 1,
        "code": "Default",
        "codename": "MHMG",
        "cost": "88",
        "swc": "2",
        "spec": [],
        "bsw": [
          "MULTI HMG",
          "Heavy Flamethrower"
        ],
        "ccw": [
          "AP CCW"
        ]
      },
      {
        "id": 2,
        "code": "Lieutenant",
        "codename": "",
        "cost": "88",
        "swc": "3",
        "spec": [
          "Lieutenant"
        ],
        "bsw": [
          "MULTI HMG",
          "Heavy Flamethrower"
        ],
        "ccw": [
          "AP CCW"
        ]
      }
    ]
  },
  {
    "id": 2012,
    "army": "Yu Jing",
    "isc": "Guilang",
    "name": "Guilang",
    "type": "SK",
    "imp": "",
    "irr": "",
    "cube": "X",
    "mov": "4-4",
    "cc": "14",
    "bs": "11",
    "ph": "12",
    "wip": "14",
    "arm": "1",
    "bts": "0",
    "w": "1",
    "s": "2",
    "ava": "2",
    "spec": [
      "CH: Camouflage",
      "Infiltration",
      "Multispectral Visor L1",
      "Multiterrain"
    ],
    "childs": [
      {
        "id": 1,
        "code": "Minelayer",
        "codename": "",
        "cost": "26",
        "swc": "0.5",
        "spec": [
          "Minelayer"
        ],
        "bsw": [
          "Antipersonnel Mines",
          "Combi Rifle"
        ],
        "ccw": [
          "Knife",
          "Pistol"
        ]
      },
      {
        "id": 2,
        "code": "Default",
        "codename": "Combi",
        "cost": "25",
        "swc": "0",
        "spec": [],
        "bsw": [
          "Antipersonnel Mines",
          "Combi Rifle"
        ],
        "ccw": [
          "Knife",
          "Pistol"
        ]
      },
      {
        "id": 3,
        "code": "Boarding Shotgun",
        "codename": "",
        "cost": "24",
        "swc": "0",
        "spec": [],
        "bsw": [
          "Antipersonnel Mines",
          "Boarding Shotgun"
        ],
        "ccw": [
          "Knife",
          "Pistol"
        ]
      },
      {
        "id": 4,
        "code": "MULTI Sniper Rifle",
        "codename": "",
        "cost": "33",
        "swc": "1.5",
        "spec": [],
        "bsw": [
          "Antipersonnel Mines",
          "MULTI Sniper Rifle"
        ],
        "ccw": [
          "Knife",
          "Pistol"
        ]
      },
      {
        "id": 5,
        "code": "Hacker",
        "codename": "",
        "cost": "31",
        "swc": "0.5",
        "spec": [
          "Assault Hacking Device"
        ],
        "bsw": [
          "Antipersonnel Mines",
          "Combi Rifle"
        ],
        "ccw": [
          "Knife",
          "Pistol"
        ]
      },
      {
        "id": 6,
        "code": "Observer",
        "codename": "",
        "cost": "27",
        "swc": "0",
        "spec": [
          "Forward Observer",
          "Deployable Repeater"
        ],
        "bsw": [
          "Antipersonnel Mines",
          "Combi Rifle"
        ],
        "ccw": [
          "Knife",
          "Pistol"
        ]
      },
      {
        "id": 7,
        "code": "Lieutenant",
        "codename": "",
        "cost": "25",
        "swc": "2",
        "spec": [
          "Lieutenant"
        ],
        "bsw": [
          "Antipersonnel Mines",
          "Combi Rifle"
        ],
        "ccw": [
          "Knife",
          "Pistol"
        ]
      }
    ]
  },
  {
    "id": 2013,
    "army": "Yu Jing",
    "isc": "Ninjas",
    "name": "Ninja",
    "type": "SK",
    "imp": "",
    "irr": "",
    "cube": "X",
    "mov": "4-4",
    "cc": "23",
    "bs": "11",
    "ph": "12",
    "wip": "13",
    "arm": "1",
    "bts": "0",
    "w": "1",
    "s": "2",
    "ava": "2",
    "spec": [
      "CH: TO Camouflage",
      "Infiltration",
      "Martial Arts L3",
      "Kinematika L1",
      "Multiterrain"
    ],
    "childs": [
      {
        "id": 1,
        "code": "Bow",
        "codename": "",
        "cost": "26",
        "swc": "0",
        "spec": [],
        "bsw": [
          "Tactical Bow"
        ],
        "ccw": [
          "Pistol",
          "Knife",
          "DA CCW"
        ]
      },
      {
        "id": 2,
        "code": "Shock",
        "codename": "",
        "cost": "34",
        "swc": "0",
        "spec": [],
        "bsw": [
          "Combi Rifle"
        ],
        "ccw": [
          "Pistol",
          "Knife",
          "Shock CCW"
        ]
      },
      {
        "id": 3,
        "code": "AP",
        "codename": "",
        "cost": "34",
        "swc": "0",
        "spec": [],
        "bsw": [
          "Combi Rifle"
        ],
        "ccw": [
          "Pistol",
          "Knife",
          "AP CCW"
        ]
      },
      {
        "id": 4,
        "code": "DA",
        "codename": "",
        "cost": "35",
        "swc": "0",
        "spec": [],
        "bsw": [
          "Combi Rifle"
        ],
        "ccw": [
          "Pistol",
          "Knife",
          "DA CCW"
        ]
      },
      {
        "id": 5,
        "code": "MULTI Sniper Rifle",
        "codename": "",
        "cost": "42",
        "swc": "1.5",
        "spec": [],
        "bsw": [
          "MULTI Sniper Rifle"
        ],
        "ccw": [
          "Pistol",
          "Knife",
          "Shock CCW"
        ]
      },
      {
        "id": 6,
        "code": "Hacker",
        "codename": "",
        "cost": "40",
        "swc": "0.5",
        "spec": [
          "Assault Hacking Device"
        ],
        "bsw": [
          "Combi Rifle"
        ],
        "ccw": [
          "Pistol",
          "Knife",
          "Shock CCW"
        ]
      }
    ]
  },
  {
    "id": 2014,
    "army": "Yu Jing",
    "isc": "Shaolin Warrior Monks",
    "name": "Shaolin",
    "type": "WB",
    "imp": "X",
    "irr": "X",
    "cube": "",
    "mov": "4-4",
    "cc": "22",
    "bs": "9",
    "ph": "13",
    "wip": "14",
    "arm": "1",
    "bts": "0",
    "w": "1",
    "s": "2",
    "ava": "4",
    "spec": [
      "Martial Arts L3",
      "Religious Troop",
      "Kinematika L1"
    ],
    "childs": [
      {
        "id": 1,
        "code": "Shock",
        "codename": "Combi",
        "cost": "11",
        "swc": "0",
        "spec": [],
        "bsw": [
          "Combi Rifle",
          "Smoke Grenades"
        ],
        "ccw": [
          "Pistol",
          "Shock CCW"
        ]
      },
      {
        "id": 2,
        "code": "AP",
        "codename": "",
        "cost": "11",
        "swc": "0",
        "spec": [],
        "bsw": [
          "Combi Rifle",
          "Smoke Grenades"
        ],
        "ccw": [
          "Pistol",
          "AP CCW"
        ]
      },
      {
        "id": 3,
        "code": "DA",
        "codename": "",
        "cost": "12",
        "swc": "0",
        "spec": [],
        "bsw": [
          "Combi Rifle",
          "Smoke Grenades"
        ],
        "ccw": [
          "Pistol",
          "DA CCW"
        ]
      },
      {
        "id": 4,
        "code": "Chain Rifle",
        "codename": "",
        "cost": "5",
        "swc": "0",
        "spec": [],
        "bsw": [
          "Chain Rifle",
          "Smoke Grenades"
        ],
        "ccw": [
          "Pistol",
          "Shock CCW"
        ]
      },
      {
        "id": 5,
        "code": "Boarding Shotgun",
        "codename": "",
        "cost": "10",
        "swc": "0",
        "spec": [],
        "bsw": [
          "Boarding Shotgun",
          "Smoke Grenades"
        ],
        "ccw": [
          "Pistol",
          "Shock CCW"
        ]
      },
      {
        "id": 6,
        "code": "Smoke LGL",
        "codename": "",
        "cost": "11",
        "swc": "1",
        "spec": [],
        "bsw": [
          "Combi Rifle",
          "Smoke Light Grenade Launcher"
        ],
        "ccw": [
          "Pistol",
          "Shock CCW"
        ]
      }
    ]
  },
  {
    "id": 2015,
    "army": "Yu Jing",
    "isc": "Yisheng",
    "name": "Yisheng",
    "type": "LI",
    "imp": "",
    "irr": "",
    "cube": "X",
    "mov": "4-4",
    "cc": "14",
    "bs": "11",
    "ph": "10",
    "wip": "13",
    "arm": "1",
    "bts": "0",
    "w": "1",
    "s": "2",
    "ava": "1",
    "spec": [
      "Doctor",
      "MediKit"
    ],
    "childs": [
      {
        "id": 1,
        "code": "Default",
        "codename": "Doctor",
        "cost": "15",
        "swc": "0",
        "spec": [],
        "bsw": [
          "Combi Rifle"
        ],
        "ccw": [
          "Knife",
          "Pistol"
        ]
      }
    ]
  },
  {
    "id": 2016,
    "army": "Yu Jing",
    "isc": "Mech-Engineer",
    "name": "Mech-Engineer",
    "type": "LI",
    "imp": "",
    "irr": "",
    "cube": "X",
    "mov": "4-4",
    "cc": "14",
    "bs": "11",
    "ph": "10",
    "wip": "13",
    "arm": "1",
    "bts": "0",
    "w": "1",
    "s": "2",
    "ava": "1",
    "spec": [
      "Engineer"
    ],
    "childs": [
      {
        "id": 1,
        "code": "Default",
        "codename": "Engineer",
        "cost": "15",
        "swc": "0",
        "spec": [],
        "bsw": [
          "Combi Rifle"
        ],
        "ccw": [
          "D-Charges",
          "Knife",
          "Pistol"
        ]
      }
    ]
  },
  {
    "id": 2017,
    "army": "Yu Jing",
    "isc": "Yáokòng Wèibīng",
    "name": "Weibing",
    "type": "REM",
    "imp": "",
    "irr": "",
    "cube": "",
    "hackable": "X",
    "mov": "6-4",
    "cc": "8",
    "bs": "11",
    "ph": "10",
    "wip": "13",
    "arm": "0",
    "bts": "3",
    "w": "1",
    "s": "3",
    "ava": "2",
    "spec": [
      "Deactivator",
      "Forward Observer",
      "G: Remote Presence",
      "Repeater",
      "Sat-lock",
      "Sensor",
      "Sniffer"
    ],
    "childs": [
      {
        "id": 1,
        "code": "Default",
        "codename": "Combi",
        "cost": "16",
        "swc": "0",
        "spec": [],
        "bsw": [
          "Combi Rifle"
        ],
        "ccw": [
          "Electric Pulse"
        ]
      }
    ]
  },
  {
    "id": 2018,
    "army": "Yu Jing",
    "isc": "Yáokòng Hùsòng",
    "name": "Husong",
    "type": "REM",
    "imp": "",
    "irr": "",
    "cube": "",
    "hackable": "X",
    "mov": "6-4",
    "cc": "8",
    "bs": "11",
    "ph": "10",
    "wip": "13",
    "arm": "0",
    "bts": "3",
    "w": "1",
    "s": "3",
    "ava": "2",
    "spec": [
      "360° Visor",
      "G: Remote Presence",
      "Total Reaction"
    ],
    "childs": [
      {
        "id": 1,
        "code": "Default",
        "codename": "HMG",
        "cost": "25",
        "swc": "1",
        "spec": [],
        "bsw": [
          "HMG"
        ],
        "ccw": [
          "Electric Pulse"
        ]
      }
    ]
  },
  {
    "id": 2019,
    "army": "Yu Jing",
    "isc": "Yáokòng Son-bae",
    "name": "Son-Bae",
    "type": "REM",
    "imp": "",
    "irr": "",
    "cube": "",
    "hackable": "X",
    "mov": "6-4",
    "cc": "8",
    "bs": "12",
    "ph": "10",
    "wip": "13",
    "arm": "0",
    "bts": "3",
    "w": "1",
    "s": "3",
    "ava": "1",
    "spec": [
      "G: Remote Presence"
    ],
    "childs": [
      {
        "id": 1,
        "code": "Default",
        "codename": "Smart Missile Launcher",
        "cost": "18",
        "swc": "1.5",
        "spec": [],
        "bsw": [
          "Smart Missile Launcher"
        ],
        "ccw": [
          "Electric Pulse"
        ]
      }
    ]
  },
  {
    "id": 2020,
    "army": "Yu Jing",
    "isc": "Yáokòng Chaīyì",
    "name": "Chaiyi",
    "type": "REM",
    "imp": "",
    "irr": "",
    "cube": "",
    "hackable": "X",
    "mov": "6-6",
    "cc": "8",
    "bs": "8",
    "ph": "11",
    "wip": "13",
    "arm": "0",
    "bts": "3",
    "w": "1",
    "s": "3",
    "ava": "1",
    "spec": [
      "CH: Mimetism",
      "G: Remote Presence",
      "Repeater",
      "Sniffer"
    ],
    "childs": [
      {
        "id": 1,
        "code": "Default",
        "codename": "Repeater",
        "cost": "8",
        "swc": "0",
        "spec": [],
        "bsw": [
          "Flash Pulse"
        ],
        "ccw": [
          "Electric Pulse"
        ]
      }
    ]
  },
  {
    "id": 2021,
    "army": "Yu Jing",
    "isc": "Sun Tze",
    "name": "Sun Tze",
    "type": "HI",
    "imp": "",
    "irr": "",
    "cube": "X",
    "hackable": "X",
    "mov": "4-4",
    "cc": "15",
    "bs": "12",
    "ph": "12",
    "wip": "17",
    "arm": "4",
    "bts": "6",
    "w": "2",
    "s": "2",
    "ava": "1",
    "spec": [
      "CH: Mimetism",
      "Strategos L3",
      "Total Immunity",
      "V: No Wound Incapacitation"
    ],
    "childs": [
      {
        "id": 1,
        "code": "Boarding Shotgun",
        "codename": "",
        "cost": "55",
        "swc": "0",
        "spec": [],
        "bsw": [
          "Nanopulser (2)",
          "Flash Pulse",
          "Boarding Shotgun"
        ],
        "ccw": [
          "Pistol",
          "Knife"
        ]
      },
      {
        "id": 2,
        "code": "MULTI",
        "codename": "",
        "cost": "60",
        "swc": "0",
        "spec": [],
        "bsw": [
          "Nanopulser (2)",
          "Flash Pulse",
          "MULTI Rifle"
        ],
        "ccw": [
          "Pistol",
          "Knife"
        ]
      },
      {
        "id": 3,
        "code": "Boarding Shotgun Lieutenant",
        "codename": "",
        "cost": "60",
        "swc": "0",
        "spec": [
          "Lieutenant",
          "Advanced Command"
        ],
        "bsw": [
          "Nanopulser (2)",
          "Flash Pulse",
          "Boarding Shotgun"
        ],
        "ccw": [
          "Pistol",
          "Knife"
        ]
      },
      {
        "id": 4,
        "code": "MULTI Lieutenant",
        "codename": "",
        "cost": "65",
        "swc": "0",
        "spec": [
          "Lieutenant",
          "Advanced Command"
        ],
        "bsw": [
          "Nanopulser (2)",
          "Flash Pulse",
          "MULTI Rifle"
        ],
        "ccw": [
          "Pistol",
          "Knife"
        ]
      }
    ]
  },
  {
    "id": 2022,
    "army": "Yu Jing",
    "isc": "Celestial Guard",
    "name": "Celestial Guard",
    "type": "LI",
    "imp": "",
    "irr": "",
    "cube": "X",
    "mov": "4-4",
    "cc": "14",
    "bs": "11",
    "ph": "10",
    "wip": "14",
    "arm": "1",
    "bts": "3",
    "w": "1",
    "s": "2",
    "ava": "2",
    "spec": [],
    "childs": [
      {
        "id": 1,
        "code": "Default",
        "codename": "Combi",
        "cost": "13",
        "swc": "0",
        "spec": [],
        "bsw": [
          "Combi Rifle"
        ],
        "ccw": [
          "Knife",
          "Pistol"
        ]
      },
      {
        "id": 2,
        "code": "Boarding Shotgun",
        "codename": "",
        "cost": "12",
        "swc": "0",
        "spec": [],
        "bsw": [
          "Boarding Shotgun"
        ],
        "ccw": [
          "Knife",
          "Pistol"
        ]
      },
      {
        "id": 3,
        "code": "Grenadier",
        "codename": "",
        "cost": "17",
        "swc": "1",
        "spec": [],
        "bsw": [
          "Light Grenade Launcher",
          "Combi Rifle"
        ],
        "ccw": [
          "Knife",
          "Pistol"
        ]
      },
      {
        "id": 4,
        "code": "Spitfire",
        "codename": "",
        "cost": "19",
        "swc": "1",
        "spec": [],
        "bsw": [
          "Spitfire"
        ],
        "ccw": [
          "Knife",
          "Pistol"
        ]
      },
      {
        "id": 5,
        "code": "MULTI Sniper Rifle",
        "codename": "",
        "cost": "21",
        "swc": "1.5",
        "spec": [],
        "bsw": [
          "MULTI Sniper Rifle"
        ],
        "ccw": [
          "Knife",
          "Pistol"
        ]
      },
      {
        "id": 6,
        "code": "Kuang Shi Control Device",
        "codename": "",
        "cost": "13",
        "swc": "0.5",
        "spec": [
          "Kuang Shi Control Device"
        ],
        "bsw": [
          "Smoke Light Grenade Launcher",
          "Combi Rifle"
        ],
        "ccw": [
          "Knife",
          "Pistol"
        ]
      },
      {
        "id": 7,
        "code": "Hacker",
        "codename": "",
        "cost": "21",
        "swc": "0.5",
        "spec": [
          "Hacking Device"
        ],
        "bsw": [
          "Combi Rifle"
        ],
        "ccw": [
          "Knife",
          "Pistol"
        ]
      },
      {
        "id": 8,
        "code": "Lieutenant",
        "codename": "",
        "cost": "13",
        "swc": "0",
        "spec": [
          "Lieutenant"
        ],
        "bsw": [
          "Combi Rifle"
        ],
        "ccw": [
          "Knife",
          "Pistol"
        ]
      }
    ]
  },
  {
    "id": 2023,
    "army": "Yu Jing",
    "isc": "Domaru Butai",
    "name": "Domaru",
    "type": "HI",
    "imp": "F",
    "irr": "",
    "cube": "X",
    "hackable": "X",
    "mov": "4-4",
    "cc": "23",
    "bs": "12",
    "ph": "14",
    "wip": "13",
    "arm": "3",
    "bts": "3",
    "w": "2",
    "s": "2",
    "ava": "2",
    "spec": [
      "Berserk",
      "Martial Arts L3",
      "Kinematika L1"
    ],
    "childs": [
      {
        "id": 1,
        "code": "Default",
        "codename": "E/M CCW",
        "cost": "25",
        "swc": "0",
        "spec": [],
        "bsw": [
          "Chain Rifle",
          "E/M Grenades"
        ],
        "ccw": [
          "Pistol",
          "E/M CCW"
        ]
      },
      {
        "id": 2,
        "code": "DA CCW",
        "codename": "",
        "cost": "26",
        "swc": "0",
        "spec": [],
        "bsw": [
          "Chain Rifle",
          "E/M Grenades"
        ],
        "ccw": [
          "Pistol",
          "DA CCW"
        ]
      },
      {
        "id": 3,
        "code": "Boarding Shotgun",
        "codename": "",
        "cost": "33",
        "swc": "0",
        "spec": [],
        "bsw": [
          "Boarding Shotgun",
          "E/M Grenades"
        ],
        "ccw": [
          "Pistol",
          "AP CCW"
        ]
      },
      {
        "id": 4,
        "code": "Lieutenant",
        "codename": "",
        "cost": "25",
        "swc": "0",
        "spec": [
          "Lieutenant"
        ],
        "bsw": [
          "Chain Rifle",
          "E/M Grenades"
        ],
        "ccw": [
          "Pistol",
          "E/M CCW"
        ]
      },
      {
        "id": 5,
        "code": "Combi",
        "codename": "",
        "cost": "34",
        "swc": "0",
        "spec": [],
        "bsw": [
          "Combi Rifle",
          "E/M Grenades"
        ],
        "ccw": [
          "Pistol",
          "E/M CCW"
        ]
      },
      {
        "id": 6,
        "code": "Spitfire",
        "codename": "",
        "cost": "38",
        "swc": "2",
        "spec": [],
        "bsw": [
          "Spitfire"
        ],
        "ccw": [
          "Pistol",
          "E/M CCW"
        ]
      }
    ]
  },
  {
    "id": 2024,
    "army": "Yu Jing",
    "isc": "Shang Ji",
    "name": "Shang Ji",
    "type": "HI",
    "imp": "",
    "irr": "",
    "cube": "X",
    "hackable": "X",
    "mov": "4-4",
    "cc": "18",
    "bs": "13",
    "ph": "14",
    "wip": "13",
    "arm": "4",
    "bts": "6",
    "w": "2",
    "s": "2",
    "ava": "3",
    "spec": [
      "Kinematika L1"
    ],
    "childs": [
      {
        "id": 1,
        "code": "Default",
        "codename": "Combi",
        "cost": "37",
        "swc": "0",
        "spec": [],
        "bsw": [
          "Combi Rifle",
          "Light Flamethrower"
        ],
        "ccw": [
          "Pistol",
          "Shock CCW"
        ]
      },
      {
        "id": 2,
        "code": "MULTI",
        "codename": "",
        "cost": "40",
        "swc": "0",
        "spec": [],
        "bsw": [
          "MULTI Rifle"
        ],
        "ccw": [
          "Pistol",
          "Shock CCW"
        ]
      },
      {
        "id": 3,
        "code": "Spitfire",
        "codename": "",
        "cost": "42",
        "swc": "2",
        "spec": [],
        "bsw": [
          "Spitfire"
        ],
        "ccw": [
          "Pistol",
          "Shock CCW"
        ]
      },
      {
        "id": 4,
        "code": "Hacker",
        "codename": "",
        "cost": "45",
        "swc": "0.5",
        "spec": [
          "Hacking Device"
        ],
        "bsw": [
          "Combi Rifle",
          "Light Flamethrower"
        ],
        "ccw": [
          "Pistol",
          "Shock CCW"
        ]
      },
      {
        "id": 5,
        "code": "Paramedic",
        "codename": "",
        "cost": "39",
        "swc": "0",
        "spec": [
          "MediKit"
        ],
        "bsw": [
          "Combi Rifle",
          "Light Flamethrower"
        ],
        "ccw": [
          "Pistol",
          "Shock CCW"
        ]
      },
      {
        "id": 6,
        "code": "Lieutenant",
        "codename": "",
        "cost": "37",
        "swc": "0",
        "spec": [
          "Lieutenant"
        ],
        "bsw": [
          "Combi Rifle",
          "Light Flamethrower"
        ],
        "ccw": [
          "Pistol",
          "Shock CCW"
        ]
      }
    ]
  },
  {
    "id": 2025,
    "army": "Yu Jing",
    "isc": "Yáozăo",
    "name": "Yaozao",
    "type": "REM",
    "imp": "",
    "irr": "",
    "cube": "",
    "hackable": "X",
    "mov": "6-4",
    "cc": "8",
    "bs": "8",
    "ph": "10",
    "wip": "13",
    "arm": "0",
    "bts": "3",
    "w": "1",
    "s": "1",
    "ava": "2",
    "spec": [
      "CH: Mimetism",
      "G: Servant"
    ],
    "childs": [
      {
        "id": 1,
        "code": "Default",
        "codename": "Servant",
        "cost": "3",
        "swc": "0",
        "spec": [],
        "bsw": [],
        "ccw": [
          "Electric Pulse"
        ]
      }
    ]
  },
  {
    "id": 2026,
    "army": "Yu Jing",
    "isc": "Yáopú Pangguling",
    "name": "Pangguling",
    "type": "REM",
    "imp": "",
    "irr": "",
    "cube": "",
    "hackable": "X",
    "mov": "4-4",
    "cc": "8",
    "bs": "11",
    "ph": "10",
    "wip": "13",
    "arm": "2",
    "bts": "3",
    "w": "1",
    "s": "4",
    "ava": "2",
    "spec": [
      "Baggage",
      "G: Remote Presence",
      "Repeater"
    ],
    "childs": [
      {
        "id": 1,
        "code": "Default",
        "codename": "Minesweeper",
        "cost": "8",
        "swc": "0",
        "spec": [
          "Minesweeper"
        ],
        "bsw": [],
        "ccw": [
          "Electric Pulse"
        ]
      },
      {
        "id": 2,
        "code": "Rifle",
        "codename": "",
        "cost": "21",
        "swc": "0",
        "spec": [
          "Total Reaction"
        ],
        "bsw": [
          "Combi Rifle"
        ],
        "ccw": [
          "Electric Pulse"
        ]
      },
      {
        "id": 3,
        "code": "EVO",
        "codename": "",
        "cost": "13",
        "swc": "0.5",
        "spec": [
          "EVO Repeater"
        ],
        "bsw": [],
        "ccw": [
          "Electric Pulse"
        ]
      }
    ]
  },
  {
    "id": 2027,
    "army": "Yu Jing",
    "isc": "Kuang Shi",
    "name": "Kuang Shi",
    "type": "LI",
    "imp": "X",
    "irr": "",
    "cube": "",
    "mov": "4-4",
    "cc": "14",
    "bs": "11",
    "ph": "12",
    "wip": "13",
    "arm": "0",
    "bts": "0",
    "w": "1",
    "s": "2",
    "ava": "4",
    "spec": [
      "Biolocator",
      "Explode L1",
      "V: Dogged"
    ],
    "childs": [
      {
        "id": 1,
        "code": "Default",
        "codename": "Chain Rifle",
        "cost": "5",
        "swc": "0",
        "spec": [],
        "bsw": [
          "Chain Rifle"
        ],
        "ccw": [
          "Pistol",
          "Knife"
        ]
      },
      {
        "id": 2,
        "code": "Boarding Shotgun",
        "codename": "",
        "cost": "11",
        "swc": "0",
        "spec": [],
        "bsw": [
          "Boarding Shotgun"
        ],
        "ccw": [
          "Pistol",
          "Knife"
        ]
      }
    ]
  },
  {
    "id": 2028,
    "army": "Yu Jing",
    "isc": "Kempeitai",
    "name": "Kempei",
    "type": "LI",
    "imp": "",
    "irr": "",
    "cube": "X",
    "mov": "4-4",
    "cc": "14",
    "bs": "12",
    "ph": "10",
    "wip": "14",
    "arm": "1",
    "bts": "0",
    "w": "1",
    "s": "2",
    "ava": "2",
    "spec": [
      "Sixth Sense L1",
      "V: Courage"
    ],
    "childs": [
      {
        "id": 1,
        "code": "CoC Boarding Shotgun",
        "codename": "BSCC",
        "cost": "23",
        "swc": "0",
        "spec": [
          "Chain of Command"
        ],
        "bsw": [
          "Boarding Shotgun"
        ],
        "ccw": [
          "Pistol",
          "CCW",
          "Electric Pulse"
        ]
      },
      {
        "id": 2,
        "code": "Chain of Command",
        "codename": "CC",
        "cost": "24",
        "swc": "0",
        "spec": [
          "Chain of Command"
        ],
        "bsw": [
          "Combi Rifle"
        ],
        "ccw": [
          "Pistol",
          "CCW",
          "Electric Pulse"
        ]
      },
      {
        "id": 3,
        "code": "Boarding Shotgun",
        "codename": "",
        "cost": "16",
        "swc": "0",
        "spec": [],
        "bsw": [
          "Boarding Shotgun"
        ],
        "ccw": [
          "Pistol",
          "CCW",
          "Electric Pulse"
        ]
      },
      {
        "id": 4,
        "code": "Default",
        "codename": "Combi",
        "cost": "17",
        "swc": "0",
        "spec": [],
        "bsw": [
          "Combi Rifle"
        ],
        "ccw": [
          "Pistol",
          "CCW",
          "Electric Pulse"
        ]
      }
    ]
  },
  {
    "id": 2029,
    "army": "Yu Jing",
    "isc": "Imperial Agent, Pheasant Rank",
    "name": "Imperial Agent",
    "type": "LI",
    "imp": "",
    "irr": "",
    "cube": "X",
    "mov": "4-4",
    "cc": "20",
    "bs": "12",
    "ph": "11",
    "wip": "14",
    "arm": "2",
    "bts": "3",
    "w": "1",
    "s": "2",
    "ava": "1",
    "spec": [
      "Martial Arts L1"
    ],
    "childs": [
      {
        "id": 1,
        "code": "Hacker",
        "codename": "",
        "cost": "34",
        "swc": "0.5",
        "spec": [
          "Hacking Device"
        ],
        "bsw": [
          "Combi Rifle"
        ],
        "ccw": [
          "Pistol",
          "Monofilament CCW"
        ]
      },
      {
        "id": 2,
        "code": "MULTI Sniper Rifle",
        "codename": "",
        "cost": "37",
        "swc": "1.5",
        "spec": [
          "Multispectral Visor L1"
        ],
        "bsw": [
          "MULTI Sniper Rifle"
        ],
        "ccw": [
          "Pistol",
          "Monofilament CCW"
        ]
      },
      {
        "id": 3,
        "code": "Boarding Shotgun",
        "codename": "",
        "cost": "35",
        "swc": "0",
        "spec": [
          "Chain of Command",
          "X Visor"
        ],
        "bsw": [
          "Boarding Shotgun"
        ],
        "ccw": [
          "Pistol",
          "Monofilament CCW"
        ]
      },
      {
        "id": 4,
        "code": "Default",
        "codename": "Combi",
        "cost": "38",
        "swc": "0",
        "spec": [
          "Chain of Command",
          "X Visor"
        ],
        "bsw": [
          "Combi Rifle",
          "E/Mitter"
        ],
        "ccw": [
          "Pistol",
          "Monofilament CCW"
        ]
      }
    ]
  },
  {
    "id": 2030,
    "army": "Yu Jing",
    "isc": "Aragoto Senkenbutai",
    "name": "Aragoto",
    "ava": "2",
    "spec": [],
    "profiles": [
      {
        "id": 1,
        "name": "Aragoto",
        "type": "LI",
        "imp": "I",
        "irr": "",
        "cube": "X",
        "mov": "8-6",
        "cc": "14",
        "bs": "12",
        "ph": "11",
        "wip": "13",
        "arm": "2",
        "bts": "0",
        "w": "1",
        "s": "4",
        "spec": [
          "CH: Mimetism",
          "Motorcycle",
          "V: Courage",
          "Kinematika L2"
        ],
        "bsw": [],
        "ccw": []
      },
      {
        "id": 2,
        "name": "Dismounted",
        "mov": "4-4",
        "s": "2",
        "spec": [
          "CH: Mimetism",
          "V: Courage"
        ]
      }
    ],
    "childs": [
      {
        "id": 1,
        "code": "Default",
        "codename": "Combi",
        "cost": "24",
        "swc": "0",
        "spec": [],
        "bsw": [
          "Combi Rifle",
          "Light Shotgun"
        ],
        "ccw": [
          "Pistol",
          "Knife"
        ]
      },
      {
        "id": 2,
        "code": "Boarding Shotgun",
        "codename": "",
        "cost": "19",
        "swc": "0",
        "spec": [],
        "bsw": [
          "Boarding Shotgun"
        ],
        "ccw": [
          "Pistol",
          "Knife"
        ]
      },
      {
        "id": 3,
        "code": "Spitfire",
        "codename": "",
        "cost": "26",
        "swc": "1",
        "spec": [],
        "bsw": [
          "Spitfire"
        ],
        "ccw": [
          "Pistol",
          "Knife"
        ]
      },
      {
        "id": 4,
        "code": "Hacker",
        "codename": "",
        "cost": "30",
        "swc": "0.5",
        "spec": [
          "Assault Hacking Device"
        ],
        "bsw": [
          "Combi Rifle",
          "Light Shotgun"
        ],
        "ccw": [
          "Pistol",
          "Knife"
        ]
      },
      {
        "id": 5,
        "code": "Lieutenant",
        "codename": "",
        "cost": "24",
        "swc": "0",
        "spec": [
          "Lieutenant"
        ],
        "bsw": [
          "Combi Rifle",
          "Light Shotgun"
        ],
        "ccw": [
          "Pistol",
          "Knife"
        ]
      }
    ]
  },
  {
    "id": 2031,
    "army": "Yu Jing",
    "isc": "Imperial Agents, Crane Rank",
    "name": "Imperial Agent",
    "type": "HI",
    "imp": "",
    "irr": "",
    "cube": "X",
    "hackable": "X",
    "mov": "4-4",
    "cc": "22",
    "bs": "13",
    "ph": "13",
    "wip": "14",
    "arm": "4",
    "bts": "6",
    "w": "2",
    "s": "2",
    "ava": "2",
    "spec": [
      "Martial Arts L3",
      "Kinematika L2"
    ],
    "childs": [
      {
        "id": 1,
        "code": "Lieutenant",
        "codename": "",
        "cost": "53",
        "swc": "0",
        "spec": [
          "Lieutenant",
          "Sensor",
          "X Visor"
        ],
        "bsw": [
          "Nanopulser (2)",
          "MULTI Rifle"
        ],
        "ccw": [
          "Pistol",
          "DA CCW"
        ]
      },
      {
        "id": 2,
        "code": "Spitfire Lieutenant",
        "codename": "",
        "cost": "55",
        "swc": "2",
        "spec": [
          "Lieutenant",
          "X Visor"
        ],
        "bsw": [
          "Nanopulser (2)",
          "Spitfire"
        ],
        "ccw": [
          "Pistol",
          "DA CCW"
        ]
      },
      {
        "id": 3,
        "code": "Spitfire",
        "codename": "",
        "cost": "55",
        "swc": "2",
        "spec": [
          "X Visor"
        ],
        "bsw": [
          "Nanopulser (2)",
          "Spitfire"
        ],
        "ccw": [
          "Pistol",
          "DA CCW"
        ]
      },
      {
        "id": 4,
        "code": "Boarding Shotgun",
        "codename": "",
        "cost": "48",
        "swc": "0",
        "spec": [
          "Sensor",
          "X Visor"
        ],
        "bsw": [
          "Nanopulser (2)",
          "Boarding Shotgun"
        ],
        "ccw": [
          "Pistol",
          "DA CCW"
        ]
      },
      {
        "id": 5,
        "code": "Default",
        "codename": "MULTI",
        "cost": "53",
        "swc": "0",
        "spec": [
          "Sensor",
          "X Visor"
        ],
        "bsw": [
          "Nanopulser (2)",
          "MULTI Rifle"
        ],
        "ccw": [
          "Pistol",
          "DA CCW"
        ]
      },
      {
        "id": 6,
        "code": "Hacker",
        "codename": "",
        "cost": "51",
        "swc": "0.5",
        "spec": [
          "Assault Hacking Device"
        ],
        "bsw": [
          "Nanopulser (2)",
          "MULTI Rifle"
        ],
        "ccw": [
          "Pistol",
          "DA CCW"
        ]
      }
    ]
  },
  {
    "id": 2032,
    "army": "Yu Jing",
    "isc": "Haramaki Zensenbutai",
    "name": "Haramaki",
    "type": "HI",
    "imp": "X",
    "irr": "",
    "cube": "X",
    "hackable": "X",
    "mov": "4-4",
    "cc": "23",
    "bs": "13",
    "ph": "14",
    "wip": "13",
    "arm": "3",
    "bts": "3",
    "w": "2",
    "s": "2",
    "ava": "2",
    "spec": [
      "Martial Arts L3",
      "Kinematika L1"
    ],
    "childs": [
      {
        "id": 1,
        "code": "Missile Launcher",
        "codename": "ML",
        "cost": "33",
        "swc": "1.5",
        "spec": [],
        "bsw": [
          "Missile Launcher"
        ],
        "ccw": [
          "Pistol",
          "DA CCW"
        ]
      },
      {
        "id": 2,
        "code": "Combi",
        "codename": "",
        "cost": "30",
        "swc": "0",
        "spec": [],
        "bsw": [
          "Blitzen",
          "Combi Rifle"
        ],
        "ccw": [
          "Pistol",
          "DA CCW"
        ]
      },
      {
        "id": 3,
        "code": "DA CCW",
        "codename": "",
        "cost": "23",
        "swc": "0",
        "spec": [],
        "bsw": [
          "Blitzen",
          "Contender"
        ],
        "ccw": [
          "Pistol",
          "DA CCW"
        ]
      },
      {
        "id": 4,
        "code": "Default",
        "codename": "AP CCW",
        "cost": "22",
        "swc": "0",
        "spec": [],
        "bsw": [
          "Blitzen",
          "Contender"
        ],
        "ccw": [
          "Pistol",
          "AP CCW"
        ]
      }
    ]
  },
  {
    "id": 2033,
    "army": "Yu Jing",
    "isc": "Karakuri Special Project",
    "name": "Karakuri",
    "type": "HI",
    "imp": "",
    "irr": "",
    "cube": "",
    "hackable": "X",
    "mov": "4-4",
    "cc": "10",
    "bs": "13",
    "ph": "11",
    "wip": "13",
    "arm": "3",
    "bts": "6",
    "w": "2",
    "wtype": "str",
    "s": "2",
    "ava": "2",
    "spec": [
      "G: Remote Presence",
      "Explode L1",
      "Total Immunity",
      "Forward Observer"
    ],
    "childs": [
      {
        "id": 1,
        "code": "Heavy Shotgun",
        "codename": "",
        "cost": "35",
        "swc": "0",
        "spec": [],
        "bsw": [
          "Chain Rifle",
          "D.E.P.",
          "Heavy Shotgun"
        ],
        "ccw": [
          "Pistol",
          "Knife"
        ]
      },
      {
        "id": 2,
        "code": "Mk12",
        "codename": "",
        "cost": "40",
        "swc": "0",
        "spec": [],
        "bsw": [
          "Chain Rifle",
          "D.E.P.",
          "Mk12"
        ],
        "ccw": [
          "Pistol",
          "Knife"
        ]
      },
      {
        "id": 3,
        "code": "Default",
        "codename": "Combi",
        "cost": "35",
        "swc": "0",
        "spec": [],
        "bsw": [
          "Chain Rifle",
          "D.E.P.",
          "Combi Rifle"
        ],
        "ccw": [
          "Pistol",
          "Knife"
        ]
      }
    ]
  },
  {
    "id": 2034,
    "army": "Yu Jing",
    "isc": "Su-Jian Immediate Action Unit",
    "name": "Su-Jian",
    "ava": "1",
    "spec": [
      "Mechanical Transmutation",
      "G: Remote Presence",
      "V: No Wound Incapacitation"
    ],
    "profiles": [
      {
        "id": 1,
        "name": "Combat Form",
        "type": "HI",
        "imp": "",
        "irr": "",
        "cube": "",
        "hackable": "X",
        "mov": "4-2",
        "cc": "16",
        "bs": "14",
        "ph": "14",
        "wip": "13",
        "arm": "5",
        "bts": "6",
        "w": "2",
        "wtype": "str",
        "s": "5",
        "spec": [],
        "bsw": [],
        "ccw": []
      },
      {
        "id": 2,
        "name": "High Mobility Form",
        "mov": "8-2",
        "cc": "8",
        "bs": "12",
        "wtype": "str",
        "s": "3",
        "spec": [
          "Climbing Plus",
          "Kinematika L2",
          "Multiterrain"
        ],
        "bsw": [],
        "ccw": []
      }
    ],
    "childs": [
      {
        "id": 1,
        "code": "Default",
        "codename": "Spitfire",
        "cost": "59",
        "swc": "2",
        "spec": [],
        "bsw": [
          "Spitfire",
          "Light Flamethrower",
          "Panzerfaust"
        ],
        "ccw": [
          "Heavy Pistol",
          "Knife"
        ]
      },
      {
        "id": 2,
        "code": "Heavy Shotgun",
        "codename": "",
        "cost": "54",
        "swc": "0",
        "spec": [],
        "bsw": [
          "Heavy Shotgun",
          "Light Flamethrower",
          "Panzerfaust"
        ],
        "ccw": [
          "Heavy Pistol",
          "Knife"
        ]
      }
    ]
  },
  {
    "id": 2035,
    "army": "Yu Jing",
    "isc": "O-Yoroi Kidobutai",
    "name": "O-Yoroi",
    "ava": "1",
    "spec": [],
    "profiles": [
      {
        "id": 1,
        "name": "O-Yoroi",
        "type": "TAG",
        "imp": "",
        "irr": "",
        "cube": "X",
        "hackable": "X",
        "mov": "6-4",
        "cc": "19",
        "bs": "14",
        "ph": "17",
        "wip": "13",
        "arm": "7",
        "bts": "6",
        "w": "3",
        "s": "7",
        "spec": [
          "ECM",
          "V: Courage",
          "Manned"
        ],
        "bsw": [],
        "ccw": []
      },
      {
        "id": 2,
        "name": "Pilot",
        "type": "LI",
        "cube": "X",
        "hackable": "",
        "mov": "4-4",
        "cc": "14",
        "bs": "11",
        "ph": "10",
        "wip": "13",
        "arm": "0",
        "bts": "0",
        "w": "1",
        "s": "2",
        "ava": " ",
        "spec": [
          "Pilot"
        ],
        "bsw": [],
        "ccw": [
          "Pistol",
          "CCW"
        ]
      },
      {
        "id": 3,
        "name": "CrazyKoala",
        "type": " ",
        "hackable": "",
        "mov": "6-4 ",
        "cc": " ",
        "bs": " ",
        "ph": " ",
        "wip": " ",
        "arm": "0",
        "bts": "0",
        "w": "1 ",
        "s": "1",
        "ava": " ",
        "spec": [
          "Super-Jump"
        ],
        "bsw": [],
        "ccw": []
      }
    ],
    "childs": [
      {
        "id": 1,
        "code": "Lieutenant",
        "codename": "",
        "cost": "81",
        "swc": "3",
        "spec": [
          "Lieutenant"
        ],
        "bsw": [
          "HMG",
          "Heavy Flamethrower",
          "CrazyKoala (2)"
        ],
        "ccw": [
          "EXP CCW"
        ]
      },
      {
        "id": 2,
        "code": "Default",
        "codename": "HMG",
        "cost": "81",
        "swc": "2",
        "spec": [],
        "bsw": [
          "HMG",
          "Heavy Flamethrower",
          "CrazyKoala (2)"
        ],
        "ccw": [
          "EXP CCW"
        ]
      }
    ]
  },
  {
    "id": 2036,
    "army": "Yu Jing",
    "isc": "Oniwaban",
    "name": "Oniwaban",
    "type": "SK",
    "imp": "",
    "irr": "",
    "cube": "X",
    "mov": "4-4",
    "cc": "24",
    "bs": "11",
    "ph": "12",
    "wip": "14",
    "arm": "1",
    "bts": "0",
    "w": "1",
    "s": "2",
    "ava": "1",
    "spec": [
      "CH: TO Camouflage",
      "Martial Arts L4",
      "Superior Infiltration",
      "Multiterrain",
      "Kinematika L2"
    ],
    "childs": [
      {
        "id": 1,
        "code": "Lieutenant",
        "codename": "",
        "cost": "41",
        "swc": "1",
        "spec": [
          "Lieutenant"
        ],
        "bsw": [
          "Boarding Shotgun",
          "Nanopulser"
        ],
        "ccw": [
          "Pistol",
          "Monofilament CCW"
        ]
      },
      {
        "id": 2,
        "code": "Default",
        "codename": "Boarding Shotgun",
        "cost": "41",
        "swc": "0",
        "spec": [],
        "bsw": [
          "Boarding Shotgun",
          "Nanopulser"
        ],
        "ccw": [
          "Pistol",
          "Monofilament CCW"
        ]
      }
    ]
  },
  {
    "id": 2037,
    "army": "Yu Jing",
    "isc": "Tokusetsu Butai",
    "name": "Tokusetsu",
    "type": "LI",
    "imp": "",
    "irr": "",
    "cube": "",
    "mov": "4-4",
    "cc": "14",
    "bs": "10",
    "ph": "10",
    "wip": "13",
    "arm": "1",
    "bts": "0",
    "w": "1",
    "s": "2",
    "ava": "2",
    "spec": [
      "V: Courage"
    ],
    "childs": [
      {
        "id": 1,
        "code": "Engineer",
        "codename": "",
        "cost": "14",
        "swc": "0",
        "spec": [
          "Engineer"
        ],
        "bsw": [
          "Combi Rifle"
        ],
        "ccw": [
          "Pistol",
          "Knife",
          "D-Charges"
        ]
      },
      {
        "id": 2,
        "code": "Default",
        "codename": "Doctor",
        "cost": "14",
        "swc": "0",
        "spec": [
          "Doctor",
          "MediKit"
        ],
        "bsw": [
          "Combi Rifle"
        ],
        "ccw": [
          "Pistol",
          "Knife"
        ]
      }
    ]
  },
  {
    "id": 2038,
    "army": "Yu Jing",
    "isc": "Yáoxiè Rui Shi",
    "name": "Rui Shi",
    "type": "REM",
    "imp": "",
    "irr": "",
    "cube": "",
    "hackable": "X",
    "mov": "6-4",
    "cc": "8",
    "bs": "12",
    "ph": "10",
    "wip": "13",
    "arm": "0",
    "bts": "3",
    "w": "1",
    "s": "4",
    "ava": "1",
    "spec": [
      "G: Remote Presence",
      "Repeater",
      "Multispectral Visor L2"
    ],
    "childs": [
      {
        "id": 1,
        "code": "Default",
        "codename": "Spitfire",
        "cost": "21",
        "swc": "1",
        "spec": [],
        "bsw": [
          "Spitfire"
        ],
        "ccw": [
          "Electric Pulse"
        ]
      }
    ]
  },
  {
    "id": 2039,
    "army": "Yu Jing",
    "isc": "Yáoxiè Lù Duān",
    "name": "Lu Duan",
    "type": "REM",
    "imp": "",
    "irr": "",
    "cube": "",
    "hackable": "X",
    "mov": "6-4",
    "cc": "8",
    "bs": "12",
    "ph": "10",
    "wip": "13",
    "arm": "0",
    "bts": "3",
    "w": "1",
    "s": "4",
    "ava": "1",
    "spec": [
      "G: Remote Presence",
      "Holoprojector L2",
      "Repeater",
      "Multispectral Visor L1"
    ],
    "childs": [
      {
        "id": 1,
        "code": "Default",
        "codename": "Mk12",
        "cost": "22",
        "swc": "0",
        "spec": [],
        "bsw": [
          "Mk12",
          "Heavy Flamethrower"
        ],
        "ccw": [
          "Electric Pulse"
        ]
      }
    ]
  },
  {
    "id": 2040,
    "army": "Yu Jing",
    "isc": "Oniwaban Shinobu Kitsune",
    "name": "Shinobu",
    "type": "SK",
    "imp": "",
    "irr": "",
    "cube": "X",
    "mov": "4-4",
    "cc": "25",
    "bs": "11",
    "ph": "13",
    "wip": "14",
    "arm": "1",
    "bts": "3",
    "w": "1",
    "s": "2",
    "ava": "1",
    "spec": [
      "CH: TO Camouflage",
      "Kinematika L2",
      "Martial Arts L5",
      "Superior Infiltration",
      "Multiterrain"
    ],
    "childs": [
      {
        "id": 1,
        "code": "Lieutenant",
        "codename": "",
        "cost": "47",
        "swc": "1",
        "spec": [
          "Lieutenant"
        ],
        "bsw": [
          "Combi Rifle",
          "Nanopulser",
          "Smoke Grenades"
        ],
        "ccw": [
          "Pistol",
          "Monofilament CCW"
        ]
      },
      {
        "id": 2,
        "code": "Default",
        "codename": "Combi",
        "cost": "47",
        "swc": "0.5",
        "spec": [],
        "bsw": [
          "Combi Rifle",
          "Nanopulser",
          "Smoke Grenades"
        ],
        "ccw": [
          "Pistol",
          "Monofilament CCW"
        ]
      }
    ]
  },
  {
    "id": 2041,
    "army": "Yu Jing",
    "isc": "Domaru Takeshi \"Neko\" Oyama",
    "name": "Oyama",
    "image": "Domaru Butai",
    "type": "HI",
    "imp": "F",
    "irr": "",
    "cube": "X",
    "hackable": "X",
    "mov": "4-4",
    "cc": "24",
    "bs": "12",
    "ph": "14",
    "wip": "14",
    "arm": "3",
    "bts": "3",
    "w": "2",
    "s": "2",
    "ava": "1",
    "spec": [
      "Berserk",
      "Dual Wield",
      "Martial Arts L3",
      "Kinematika L2"
    ],
    "childs": [
      {
        "id": 1,
        "code": "Lieutenant",
        "codename": "",
        "cost": "34",
        "swc": "0",
        "spec": [
          "Lieutenant"
        ],
        "bsw": [
          "Chain Rifle",
          "E/M Grenades"
        ],
        "ccw": [
          "Pistol",
          "AP CCW",
          "EXP CCW"
        ]
      },
      {
        "id": 2,
        "code": "Default",
        "codename": "Chain Rifle",
        "cost": "34",
        "swc": "0",
        "spec": [],
        "bsw": [
          "Chain Rifle",
          "E/M Grenades"
        ],
        "ccw": [
          "Pistol",
          "AP CCW",
          "EXP CCW"
        ]
      }
    ]
  },
  {
    "id": 2042,
    "army": "Yu Jing",
    "isc": "Sun Tze v.2 (Marksman Leader)",
    "name": "Sun Tze",
    "image": "Sun Tze",
    "type": "MI",
    "imp": "",
    "irr": "",
    "cube": "X",
    "mov": "4-4",
    "cc": "15",
    "bs": "13",
    "ph": "11",
    "wip": "17",
    "arm": "2",
    "bts": "0",
    "w": "1",
    "s": "2",
    "ava": "1",
    "spec": [
      "Total Immunity",
      "Strategos L3",
      "V: No Wound Incapacitation",
      "X-2 Visor"
    ],
    "childs": [
      {
        "id": 1,
        "code": "MULTI Sniper Rifle Lieutenant",
        "codename": "",
        "cost": "54",
        "swc": "1.5",
        "spec": [
          "Lieutenant",
          "Advanced Command"
        ],
        "bsw": [
          "MULTI Sniper Rifle"
        ],
        "ccw": [
          "Pistol",
          "Knife"
        ]
      },
      {
        "id": 2,
        "code": "MULTI Sniper Rifle",
        "codename": "",
        "cost": "49",
        "swc": "1.5",
        "spec": [],
        "bsw": [
          "MULTI Sniper Rifle"
        ],
        "ccw": [
          "Pistol",
          "Knife"
        ]
      },
      {
        "id": 3,
        "code": "Lieutenant",
        "codename": "MULTI Lieutenant",
        "cost": "50",
        "swc": "0",
        "spec": [
          "Lieutenant",
          "Advanced Command"
        ],
        "bsw": [
          "MULTI Rifle"
        ],
        "ccw": [
          "Pistol",
          "Knife"
        ]
      },
      {
        "id": 4,
        "code": "Default",
        "codename": "MULTI",
        "cost": "45",
        "swc": "0",
        "spec": [],
        "bsw": [
          "MULTI Rifle"
        ],
        "ccw": [
          "Pistol",
          "Knife"
        ]
      }
    ]
  },
  {
    "id": 2043,
    "army": "Yu Jing",
    "isc": "Guǐ Fēng Spec-Ops",
    "name": "Guǐ Fēng",
    "type": "SPEC-OPS",
    "imp": "",
    "irr": "",
    "cube": "",
    "mov": "X-X",
    "cc": "X",
    "bs": "X",
    "ph": "X",
    "wip": "X",
    "arm": "X",
    "bts": "X",
    "w": "X",
    "ava": "1",
    "spec": [
      "Spec-Op"
    ],
    "childs": [
      {
        "id": 1,
        "code": "Default",
        "codename": "Spec-Ops",
        "cost": "0",
        "swc": "0",
        "spec": [],
        "bsw": [],
        "ccw": []
      }
    ]
  },
  {
    "id": 2044,
    "army": "Yu Jing",
    "isc": "Keisotsu Guǐ Fēng Yuriko Oda",
    "name": "Keisotsu Guǐ Fēng Yuriko Oda",
    "image": "Guǐ Fēng Spec-Ops",
    "type": "LI",
    "imp": "",
    "irr": "",
    "cube": "",
    "mov": "4-4",
    "cc": "14",
    "bs": "12",
    "ph": "11",
    "wip": "13",
    "arm": "1",
    "bts": "3",
    "w": "1",
    "s": "2",
    "ava": "1",
    "spec": [
      "Engineer",
      "Hyper-Dynamics L1",
      "Minelayer",
      "V: Courage"
    ],
    "childs": [
      {
        "id": 1,
        "code": "Default",
        "codename": "E/Mitter",
        "cost": "23",
        "swc": "0",
        "spec": [],
        "bsw": [
          "Combi Rifle",
          "D-Charges",
          "Antipersonnel Mines",
          "E/Mitter"
        ],
        "ccw": [
          "Pistol",
          "CCW"
        ]
      },
      {
        "id": 2,
        "code": "Panzerfaust",
        "codename": "",
        "cost": "24",
        "swc": "0",
        "spec": [],
        "bsw": [
          "Combi Rifle",
          "D-Charges",
          "Antipersonnel Mines",
          "Panzerfaust"
        ],
        "ccw": [
          "Pistol",
          "CCW"
        ]
      }
    ]
  },
  {
    "id": 2045,
    "army": "Yu Jing",
    "isc": "Bao Troop",
    "name": "Bao",
    "type": "LI",
    "imp": "",
    "irr": "",
    "cube": "X",
    "mov": "4-4",
    "cc": "15",
    "bs": "12",
    "ph": "11",
    "wip": "14",
    "arm": "1",
    "bts": "6",
    "w": "1",
    "s": "2",
    "ava": "2",
    "spec": [
      "Multispectral Visor L2",
      "V: Courage"
    ],
    "childs": [
      {
        "id": 1,
        "code": "Default",
        "codename": "Combi",
        "cost": "29",
        "swc": "0",
        "spec": [
          "X Visor"
        ],
        "bsw": [
          "Combi Rifle",
          "Light Shotgun"
        ],
        "ccw": [
          "Pistol",
          "Knife"
        ]
      },
      {
        "id": 2,
        "code": "Boarding Shotgun",
        "codename": "",
        "cost": "28",
        "swc": "0",
        "spec": [
          "X Visor"
        ],
        "bsw": [
          "Boarding Shotgun",
          "Contender"
        ],
        "ccw": [
          "Pistol",
          "Knife"
        ]
      },
      {
        "id": 3,
        "code": "MULTI Sniper Rifle",
        "codename": "",
        "cost": "30",
        "swc": "1.5",
        "spec": [],
        "bsw": [
          "MULTI Sniper Rifle"
        ],
        "ccw": [
          "Pistol",
          "Knife"
        ]
      }
    ]
  },
  {
    "id": 2046,
    "army": "Yu Jing",
    "isc": "Raiden Seibutai",
    "name": "Raiden",
    "type": "MI",
    "imp": "",
    "irr": "",
    "cube": "X",
    "mov": "4-2",
    "cc": "14",
    "bs": "12",
    "ph": "11",
    "wip": "13",
    "arm": "3",
    "bts": "3",
    "w": "1",
    "s": "2",
    "ava": "2",
    "spec": [
      "CH: Limited Camouflage"
    ],
    "childs": [
      {
        "id": 1,
        "code": "Default",
        "codename": "MULTI Sniper Rifle",
        "cost": "27",
        "swc": "1.5",
        "spec": [],
        "bsw": [
          "MULTI Sniper Rifle"
        ],
        "ccw": [
          "Pistol",
          "Knife"
        ]
      },
      {
        "id": 2,
        "code": "Heavy Rocket Launcher",
        "codename": "",
        "cost": "19",
        "swc": "1.5",
        "spec": [
          "X Visor"
        ],
        "bsw": [
          "Heavy Rocket Launcher"
        ],
        "ccw": [
          "Pistol",
          "Knife"
        ]
      },
      {
        "id": 3,
        "code": "Spitfire",
        "codename": "",
        "cost": "27",
        "swc": "1.5",
        "spec": [
          "X Visor"
        ],
        "bsw": [
          "Spitfire"
        ],
        "ccw": [
          "Pistol",
          "Knife"
        ]
      }
    ]
  },
  {
    "id": 2047,
    "army": "Yu Jing",
    "isc": "Asuka Kisaragi",
    "name": "Kisaragi",
    "ava": "1",
    "spec": [],
    "profiles": [
      {
        "id": 1,
        "type": "LI",
        "imp": "I",
        "irr": "",
        "cube": "X",
        "mov": "8-6",
        "cc": "16",
        "bs": "12",
        "ph": "12",
        "wip": "14",
        "arm": "2",
        "bts": "0",
        "w": "1",
        "s": "4",
        "spec": [
          "Motorcycle",
          "CH: Mimetism",
          "V: Courage",
          "Kinematika L2"
        ],
        "bsw": [],
        "ccw": []
      },
      {
        "id": 2,
        "name": "Dismounted",
        "mov": "4-4",
        "s": "2",
        "ava": " ",
        "spec": [
          "CH: Mimetism",
          "V: Courage"
        ],
        "bsw": [],
        "ccw": []
      }
    ],
    "childs": [
      {
        "id": 1,
        "code": "Default",
        "codename": "Combi",
        "cost": "27",
        "swc": "0",
        "spec": [],
        "bsw": [
          "Combi Rifle",
          "Light Flamethrower"
        ],
        "ccw": [
          "Assault Pistol",
          "Knife"
        ]
      },
      {
        "id": 2,
        "code": "Lieutenant",
        "codename": "",
        "cost": "27",
        "swc": "0",
        "spec": [
          "Lieutenant"
        ],
        "bsw": [
          "Combi Rifle",
          "Light Flamethrower"
        ],
        "ccw": [
          "Assault Pistol",
          "Knife"
        ]
      }
    ]
  },
  {
    "id": 2048,
    "army": "Yu Jing",
    "isc": "Kǎnrèn Counter-Insurgency Group",
    "name": "Kǎnrèn",
    "type": "SK",
    "imp": "",
    "irr": "",
    "cube": "X",
    "mov": "4-4",
    "cc": "19",
    "bs": "12",
    "ph": "10",
    "wip": "13",
    "arm": "1",
    "bts": "3",
    "w": "1",
    "s": "2",
    "ava": "1",
    "spec": [
      "Holoprojector L2",
      "Martial Arts L1",
      "Forward Deployment L2",
      "Kinematika L1"
    ],
    "bsw": [],
    "ccw": [],
    "childs": [
      {
        "id": 1,
        "code": "Default",
        "codename": "Boarding Shotgun",
        "cost": "25",
        "swc": "0",
        "spec": [],
        "bsw": [
          "Boarding Shotgun",
          "Chain-colt"
        ],
        "ccw": [
          "Pistol",
          "Monofilament CCW",
          "Knife"
        ]
      },
      {
        "id": 2,
        "code": "Hacker",
        "codename": "",
        "cost": "32",
        "swc": "0.5",
        "spec": [],
        "bsw": [
          "Combi Rifle",
          "Chain-colt"
        ],
        "ccw": [
          "Pistol",
          "Monofilament CCW",
          "Knife"
        ]
      },
      {
        "id": 3,
        "code": "Minelayer",
        "codename": "",
        "cost": "27",
        "swc": "0",
        "spec": [
          "Minelayer",
          "Sniffer"
        ],
        "bsw": [
          "Boarding Shotgun",
          "Chain-colt"
        ],
        "ccw": [
          "Pistol",
          "Monofilament CCW",
          "Knife"
        ]
      },
      {
        "id": 4,
        "code": "Forward Observer",
        "codename": "",
        "cost": "26",
        "swc": "0",
        "spec": [
          "Forward Observer"
        ],
        "bsw": [
          "Boarding Shotgun",
          "Chain-colt"
        ],
        "ccw": [
          "Pistol",
          "Monofilament CCW",
          "Knife"
        ]
      }
    ]
  }
]